{
    "prepare_queue": {
        "installed": [],
        "uninstalled": []
    },
    "config_munge": {
        "files": {}
    },
    "installed_plugins": {
        "phonegap-plugin-push": {
            "SENDER_ID": "387390682235",
            "PACKAGE_NAME": "com.geotap.pequeagenda"
        },
        "cordova-plugin-console": {
            "PACKAGE_NAME": "com.geotap.pequeagenda"
        },
        "cordova-plugin-inappbrowser": {
            "PACKAGE_NAME": "com.geotap.pequeagenda"
        }
    },
    "dependent_plugins": {}
}